lab06
…
#decision tree model 
dt <- decision_tree() %>% 
  set_engine("rpart") %>%
  set_mode("classification")

#XGBoost model
xgb <- boost_tree( mode = "regression", trees = 500)

list(camels)

[[1]]
# A tibble: 507 × 59
   gauge_id p_mean pet_mean p_seasonality frac_snow aridity high_prec_freq
   <chr>     <dbl>    <dbl>         <dbl>     <dbl>   <dbl>          <dbl>
 1 01022500   3.61     2.12       -0.115      0.245   0.587           20.6
 2 01031500   3.52     2.07        0.104      0.292   0.588           18.9
 3 01047000   3.32     2.09        0.148      0.280   0.629           20.1
 4 01052500   3.73     2.10        0.152      0.353   0.562           13.5
 5 01054200   4.07     2.13        0.105      0.300   0.523           17.5
 6 01055000   3.49     2.09        0.167      0.306   0.599           19.2
 7 01057000   3.57     2.13        0.0791     0.251   0.597           20.4
 8 01073000   3.50     2.21        0.0304     0.175   0.630           20.8
 9 01078000   3.56     2.18        0.110      0.240   0.613           21.4
10 01118300   3.90     2.31       -0.0377     0.111   0.593           21.5
# ℹ 497 more rows
# ℹ 52 more variables: high_prec_dur <dbl>, high_prec_timing <chr>,
#   low_prec_freq <dbl>, low_prec_dur <dbl>, low_prec_timing <chr>,
#   geol_1st_class <chr>, glim_1st_class_frac <dbl>, geol_2nd_class <chr>,
#   glim_2nd_class_frac <dbl>, carbonate_rocks_frac <dbl>, geol_porostiy <dbl>,
#   geol_permeability <dbl>, soil_depth_pelletier <dbl>,
#   soil_depth_statsgo <dbl>, soil_porosity <dbl>, soil_conductivity <dbl>, …
…
list(ctest_data)

[[1]]
# A tibble: 134 × 10
   logQmean p_mean aridity soil_depth_pelletier max_water_content organic_frac
      <dbl>  <dbl>   <dbl>                <dbl>             <dbl>        <dbl>
 1    1.00    4.07   0.523                0.915             0.595            0
 2    0.563   3.56   0.613                3.64              0.619            0
 3    0.552   3.82   0.603                9.09              0.534            0
 4    0.594   3.30   0.644                2.51              0.518            0
 5    0.608   3.78   0.597                9.32              0.604            0
 6    0.805   3.92   0.574                3.96              0.513            0
 7    0.766   3.82   0.594                5.03              0.484            0
 8    0.694   3.95   0.577                6.96              0.507            0
 9    0.746   3.87   0.580                1.92              0.454            0
10    0.806   3.98   0.560                1.06              0.298            0
# ℹ 124 more rows
# ℹ 4 more variables: frac_snow <dbl>, pet_mean <dbl>,
#   soil_depth_statsgo <dbl>, elev_mean <dbl>
…
